[{
  "_id": {
    "$oid": "66395d8b1e216aded0978134"
  },
  "type": "EMERGENCY"
},
{
  "_id": {
    "$oid": "66395dbb1e216aded0978135"
  },
  "type": "FOREIGN"
},
{
  "_id": {
    "$oid": "66395dc41e216aded0978136"
  },
  "type": "GOVERNMENT"
}]